70
14
60
62
96
40
55
87
20
35
88
3
71
68
6
10
56
70
36
72
13
60
24
40
40
2
15
12
28
51
81
49
98
31
7
1
37
74
6
41
61
71
43
59
47
31
90
77
63
16
20
73
64
80
36
56
5
72
97
25
74
33
69
97
49
99
59
51
98
94
32
4
44
69
54
72
72
57
47
98
86
63
23
94
51
76
3
18
35
70
61
81
70
55
58
72
54
7
10
4
